<svg width="12" height="12" viewBox="0 0 12 12" fill="none" xmlns="http://www.w3.org/2000/svg">
<path fill-rule="evenodd" clip-rule="evenodd" d="M8.55459 0.877729C8.81295 0.61937 9.23183 0.61937 9.49019 0.877729C9.74855 1.13609 9.74855 1.55497 9.49019 1.81333L5.30349 6.00003L9.49019 10.1867C9.74855 10.4451 9.74855 10.864 9.49019 11.1223C9.23183 11.3807 8.81295 11.3807 8.55459 11.1223L4.04693 6.61466C3.98549 6.58374 3.92787 6.54263 3.87658 6.49134C3.74142 6.35618 3.67697 6.17709 3.68323 6.00003C3.67697 5.82297 3.74142 5.64388 3.87658 5.50872C3.92787 5.45743 3.98549 5.41632 4.04692 5.38539L8.55459 0.877729Z" fill="#009141"/>
</svg>
