<svg width="15" height="15" viewBox="0 0 15 15" fill="none" xmlns="http://www.w3.org/2000/svg">
<path d="M2.19669 12.8033L12.8033 2.19666" stroke="#2B2B2B" stroke-width="2" stroke-linecap="round"/>
<path d="M2.19674 2.19682L12.8033 12.8034" stroke="#2B2B2B" stroke-width="2" stroke-linecap="round"/>
</svg>
