<svg width="16" height="15" viewBox="0 0 16 15" fill="none" xmlns="http://www.w3.org/2000/svg">
<path fill-rule="evenodd" clip-rule="evenodd" d="M5.752 4.9725L8 0L10.248 4.9725L16 5.43L11.632 8.9775L12.944 14.25L8 11.4525L3.056 14.25L4.368 8.9775L0 5.43L5.752 4.9725ZM9.01586 5.05361L8.088 3L7.16014 5.03567L6.71056 6.03109L5.56269 6.12076L3.2 6.30909L4.99832 7.77082L5.86879 8.47927L5.61052 9.53746L5.07485 11.6987L7.10275 10.5508L8.088 9.99481L9.07325 10.5687L11.1012 11.7166L10.5655 9.5554L10.3072 8.49721L11.1777 7.78876L12.976 6.32702L10.6133 6.1387L9.46544 6.04902L9.01586 5.05361Z" fill="#ACACAC"/>
</svg>
