<svg width="24" height="24" viewBox="0 0 24 24" fill="none" xmlns="http://www.w3.org/2000/svg">
<path fill-rule="evenodd" clip-rule="evenodd" d="M14.3655 15.1162C13.2714 16.276 11.7203 17 10 17C6.68629 17 4 14.3137 4 11C4 7.68629 6.68629 5 10 5C13.3137 5 16 7.68629 16 11C16 12.3951 15.5239 13.6789 14.7253 14.6979C15.0927 14.4522 15.5909 14.4642 15.9492 14.7578L19.6861 17.8199C20.1329 18.1861 20.1908 18.8482 19.8143 19.2863C19.4501 19.7102 18.8141 19.7659 18.3818 19.4116L14.6449 16.3495C14.2719 16.0438 14.1699 15.5319 14.3655 15.1162ZM14 11C14 13.2091 12.2091 15 10 15C7.79086 15 6 13.2091 6 11C6 8.79086 7.79086 7 10 7C12.2091 7 14 8.79086 14 11Z" fill="white"/>
</svg>
