<svg width="20" height="20" viewBox="0 0 20 20" fill="none" xmlns="http://www.w3.org/2000/svg">
<rect width="20" height="20" rx="3" fill="#EF4949"/>
<path fill-rule="evenodd" clip-rule="evenodd" d="M14.0205 9.41308C14.0205 8.56802 14.562 8.33337 15.0563 8.33337C15.2682 8.33337 15.4331 8.33356 15.6214 8.40398C15.7627 8.45093 15.8098 8.54473 15.8334 8.6621V8.66264C15.8334 8.70923 15.8334 8.7327 15.8099 8.77947C15.7628 8.87336 15.6683 8.96744 15.5506 8.96744C15.5035 8.96744 15.48 8.96708 15.4329 8.9436C15.3152 8.89665 15.1976 8.87346 15.0563 8.87346C14.8209 8.87346 14.6329 9.01421 14.6329 9.48368V9.88256H15.4329C15.5977 9.88256 15.6683 10.0002 15.6683 10.1645C15.6683 10.3288 15.5977 10.4226 15.4329 10.4226H14.6329V13.3569C14.6329 13.5212 14.4915 13.615 14.3267 13.615C14.1384 13.615 14.0205 13.5447 14.0205 13.3569V10.4226H13.4559C13.2911 10.4226 13.2205 10.3288 13.2205 10.1645C13.2205 10.0002 13.2911 9.88256 13.4559 9.88256H14.0205V9.41308ZM12.0434 8.61534C12.0434 8.45102 12.1609 8.35676 12.3257 8.35676C12.514 8.35676 12.6316 8.45093 12.608 8.63872V13.3335C12.608 13.4978 12.4906 13.5916 12.3023 13.5916C12.1139 13.5916 12.0195 13.4977 12.0195 13.3569V13.2161C12.0195 13.1834 12.0247 13.1356 12.0302 13.0842L12.0302 13.0842C12.0366 13.025 12.0434 12.9611 12.0434 12.9108C11.808 13.3803 11.4311 13.6622 10.819 13.6622C9.85386 13.6622 9.24199 12.9109 9.24199 11.7137C9.24199 10.5635 9.85377 9.81241 10.8425 9.81241C11.4545 9.81241 11.8315 10.0939 12.0669 10.5634C12.0669 10.4781 12.0605 10.3865 12.0545 10.2984L12.0545 10.2983C12.0488 10.2168 12.0434 10.1382 12.0434 10.0705V8.61534ZM7.07597 9.81241C6.44038 9.81241 6.064 10.1173 5.8286 10.5868C5.85204 10.4699 5.85204 10.3065 5.85204 10.2124V10.2124V10.2113V10.0939C5.85204 9.9296 5.73452 9.85918 5.56974 9.85918C5.38141 9.85918 5.26353 9.95298 5.26353 10.1173V14.7419C5.26353 14.9062 5.38141 15 5.56974 15C5.75806 15 5.85204 14.9062 5.85204 14.7419V13.2863V13.2849C5.85204 13.1678 5.85204 13.0277 5.8286 12.9108C6.064 13.3803 6.44047 13.6856 7.05253 13.6856C8.04123 13.6856 8.65347 12.9109 8.65347 11.7137C8.65347 10.5165 8.06468 9.81241 7.07597 9.81241ZM12.0434 11.7137C12.0434 10.8921 11.643 10.3053 10.9133 10.3053C10.2306 10.3053 9.85395 10.8686 9.85395 11.7137C9.85395 12.5822 10.2306 13.1455 10.9133 13.1455C11.6195 13.1455 12.0434 12.5588 12.0434 11.7137ZM7.00561 10.3286C7.68829 10.3286 8.0415 10.8685 8.0415 11.7371C8.01796 12.5821 7.6413 13.1455 6.98217 13.1455C6.27595 13.1455 5.85203 12.5587 5.85203 11.7371C5.85203 10.9155 6.27585 10.3286 7.00561 10.3286ZM3.33337 13.1455C3.33337 12.8873 3.52133 12.6994 3.78028 12.6994C4.03923 12.6994 4.25109 12.8873 4.25109 13.1455C4.25109 13.4272 4.03923 13.615 3.78028 13.615C3.52133 13.615 3.33337 13.4272 3.33337 13.1455Z" fill="white"/>
<path d="M15.6214 8.40398L15.5513 8.59144L15.5583 8.59377L15.6214 8.40398ZM15.8334 8.6621H16.0334V8.64224L16.0295 8.62277L15.8334 8.6621ZM15.8099 8.77947L15.6311 8.68982L15.6311 8.68982L15.8099 8.77947ZM15.4329 8.9436L15.5221 8.76462L15.5147 8.76091L15.507 8.75783L15.4329 8.9436ZM14.6329 9.88256H14.4329V10.0826H14.6329V9.88256ZM14.6329 10.4226V10.2226H14.4329V10.4226H14.6329ZM14.0205 10.4226H14.2205V10.2226H14.0205V10.4226ZM14.0205 9.88256V10.0826H14.2205V9.88256H14.0205ZM12.608 8.63872L12.4096 8.61384L12.408 8.62623V8.63872H12.608ZM12.0302 13.0842L12.229 13.1056L12.2293 13.1032L12.0302 13.0842ZM12.0302 13.0842L11.8313 13.0628L11.8311 13.0653L12.0302 13.0842ZM12.0434 12.9108H12.2434L11.8646 12.8211L12.0434 12.9108ZM12.0669 10.5634L11.8881 10.653L12.2669 10.5634H12.0669ZM12.0545 10.2984L12.2541 10.2846L12.2534 10.278L12.0545 10.2984ZM12.0545 10.2983L11.8548 10.3121L11.8555 10.3187L12.0545 10.2983ZM5.8286 10.5868L5.6325 10.5474L6.00738 10.6764L5.8286 10.5868ZM5.85204 10.2124L5.65204 10.2124L5.65204 10.2124L5.85204 10.2124ZM5.85204 13.2849L5.65204 13.2849V13.2849H5.85204ZM5.8286 12.9108L6.00738 12.8211L5.6325 12.9501L5.8286 12.9108ZM8.0415 11.7371L8.2415 11.7427V11.7371H8.0415ZM15.0563 8.13337C14.7817 8.13337 14.4706 8.19806 14.225 8.40268C13.9726 8.61294 13.8205 8.94488 13.8205 9.41308H14.2205C14.2205 9.03622 14.339 8.82831 14.4811 8.70998C14.6298 8.58602 14.8367 8.53337 15.0563 8.53337V8.13337ZM15.6915 8.21665C15.4646 8.13183 15.2648 8.13337 15.0563 8.13337V8.53337C15.2716 8.53337 15.4016 8.53529 15.5514 8.59131L15.6915 8.21665ZM16.0295 8.62277C16.015 8.55084 15.9897 8.4656 15.9326 8.38805C15.8727 8.30672 15.7893 8.24902 15.6845 8.21419L15.5583 8.59377C15.5948 8.60588 15.6056 8.61856 15.6105 8.62522C15.6182 8.63565 15.6282 8.65599 15.6373 8.70143L16.0295 8.62277ZM16.0334 8.66264V8.6621H15.6334V8.66264H16.0334ZM15.9887 8.86912C16.007 8.83267 16.0207 8.79588 16.0277 8.75396C16.0339 8.71697 16.0334 8.68202 16.0334 8.66264H15.6334C15.6334 8.67527 15.6333 8.68138 15.6332 8.68625C15.633 8.69022 15.6328 8.69008 15.6332 8.68802C15.6336 8.68556 15.6342 8.68344 15.6345 8.68248C15.6347 8.68197 15.634 8.68404 15.6311 8.68982L15.9887 8.86912ZM15.5506 9.16744C15.7778 9.16744 15.9262 8.99387 15.9887 8.86911L15.6311 8.68982C15.6187 8.71461 15.6006 8.73752 15.5821 8.75227C15.5644 8.76641 15.5539 8.76744 15.5506 8.76744V9.16744ZM15.3437 9.12259C15.3797 9.14056 15.4162 9.1543 15.458 9.16145C15.4953 9.16784 15.5301 9.16744 15.5506 9.16744V8.76744C15.5382 8.76744 15.5321 8.76739 15.5274 8.76719C15.5235 8.76703 15.5236 8.76687 15.5255 8.7672C15.5279 8.7676 15.5298 8.76816 15.5304 8.76839C15.5306 8.76846 15.5282 8.76765 15.5221 8.76462L15.3437 9.12259ZM15.0563 9.07346C15.1731 9.07346 15.2654 9.09213 15.3588 9.12937L15.507 8.75783C15.365 8.70118 15.2221 8.67346 15.0563 8.67346V9.07346ZM14.8329 9.48368C14.8329 9.27016 14.8766 9.17161 14.9114 9.1288C14.9395 9.09427 14.9802 9.07346 15.0563 9.07346V8.67346C14.897 8.67346 14.726 8.72302 14.6013 8.87623C14.4832 9.02116 14.4329 9.22773 14.4329 9.48368H14.8329ZM14.8329 9.88256V9.48368H14.4329V9.88256H14.8329ZM15.4329 9.68256H14.6329V10.0826H15.4329V9.68256ZM15.8683 10.1645C15.8683 10.058 15.846 9.93805 15.7712 9.84032C15.6897 9.73397 15.5682 9.68256 15.4329 9.68256V10.0826C15.4416 10.0826 15.4475 10.0833 15.4511 10.0841C15.4547 10.0848 15.4561 10.0854 15.4562 10.0855C15.4562 10.0855 15.456 10.0854 15.4557 10.0852C15.4554 10.085 15.455 10.0847 15.4546 10.0844C15.4537 10.0837 15.4534 10.0833 15.4536 10.0835C15.4553 10.0857 15.4683 10.1067 15.4683 10.1645H15.8683ZM15.4329 10.6226C15.5534 10.6226 15.6758 10.5871 15.7633 10.4864C15.8462 10.3912 15.8683 10.2707 15.8683 10.1645H15.4683C15.4683 10.2227 15.4552 10.2312 15.4615 10.224C15.4652 10.2197 15.4688 10.2182 15.4679 10.2185C15.4658 10.2194 15.4556 10.2226 15.4329 10.2226V10.6226ZM14.6329 10.6226H15.4329V10.2226H14.6329V10.6226ZM14.8329 13.3569V10.4226H14.4329V13.3569H14.8329ZM14.3267 13.815C14.4448 13.815 14.5675 13.7816 14.6652 13.7048C14.7674 13.6244 14.8329 13.5029 14.8329 13.3569H14.4329C14.4329 13.3685 14.4306 13.3746 14.4291 13.3776C14.4275 13.3809 14.4244 13.3852 14.418 13.3903C14.4038 13.4015 14.3733 13.415 14.3267 13.415V13.815ZM13.8205 13.3569C13.8205 13.4954 13.8664 13.6261 13.9805 13.7145C14.0844 13.795 14.2137 13.815 14.3267 13.815V13.415C14.2514 13.415 14.2275 13.3998 14.2254 13.3982C14.2253 13.3981 14.2257 13.3985 14.2263 13.3992C14.2268 13.3999 14.2266 13.3998 14.226 13.3983C14.2246 13.3952 14.2205 13.3833 14.2205 13.3569H13.8205ZM13.8205 10.4226V13.3569H14.2205V10.4226H13.8205ZM13.4559 10.6226H14.0205V10.2226H13.4559V10.6226ZM13.0205 10.1645C13.0205 10.2707 13.0426 10.3912 13.1254 10.4864C13.213 10.5871 13.3354 10.6226 13.4559 10.6226V10.2226C13.4331 10.2226 13.4229 10.2194 13.4208 10.2185C13.4199 10.2182 13.4236 10.2197 13.4273 10.224C13.4336 10.2312 13.4205 10.2227 13.4205 10.1645H13.0205ZM13.4559 9.68256C13.3206 9.68256 13.199 9.73397 13.1176 9.84032C13.0427 9.93805 13.0205 10.058 13.0205 10.1645H13.4205C13.4205 10.1067 13.4335 10.0857 13.4351 10.0835C13.4353 10.0833 13.435 10.0837 13.4342 10.0844C13.4338 10.0847 13.4334 10.085 13.4331 10.0852C13.4327 10.0854 13.4325 10.0855 13.4326 10.0855C13.4326 10.0854 13.4341 10.0848 13.4376 10.0841C13.4412 10.0833 13.4471 10.0826 13.4559 10.0826V9.68256ZM14.0205 9.68256H13.4559V10.0826H14.0205V9.68256ZM13.8205 9.41308V9.88256H14.2205V9.41308H13.8205ZM12.3257 8.15676C12.2065 8.15676 12.085 8.19105 11.9904 8.27447C11.8928 8.36062 11.8434 8.48226 11.8434 8.61534H12.2434C12.2434 8.59828 12.2464 8.58858 12.2484 8.58392C12.2503 8.57952 12.2524 8.57678 12.2551 8.57439C12.2605 8.5696 12.2802 8.55676 12.3257 8.55676V8.15676ZM12.8065 8.6636C12.8242 8.52256 12.7906 8.38257 12.6834 8.28165C12.5829 8.18709 12.4488 8.15676 12.3257 8.15676V8.55676C12.3567 8.55676 12.3784 8.56069 12.3922 8.56507C12.3989 8.5672 12.4033 8.56929 12.4059 8.57075C12.4072 8.57147 12.4081 8.57205 12.4086 8.57242C12.4091 8.57279 12.4093 8.57299 12.4093 8.57299C12.4093 8.57299 12.4093 8.57296 12.4092 8.57289C12.4091 8.57282 12.409 8.57273 12.4089 8.57261C12.4087 8.57236 12.4086 8.5721 12.4084 8.57187C12.4081 8.57131 12.4084 8.57157 12.4089 8.5733C12.4099 8.57682 12.4127 8.58904 12.4096 8.61384L12.8065 8.6636ZM12.808 13.3335V8.63872H12.408V13.3335H12.808ZM12.3023 13.7916C12.4272 13.7916 12.5542 13.7606 12.6537 13.6779C12.758 13.5911 12.808 13.4671 12.808 13.3335H12.408C12.408 13.3506 12.405 13.3595 12.4035 13.363C12.4022 13.3661 12.4007 13.3681 12.3979 13.3704C12.3915 13.3757 12.3657 13.3916 12.3023 13.3916V13.7916ZM11.8195 13.3569C11.8195 13.4742 11.8605 13.5921 11.9589 13.6779C12.0537 13.7604 12.1771 13.7916 12.3023 13.7916V13.3916C12.2715 13.3916 12.2508 13.3877 12.2381 13.3838C12.2258 13.38 12.2217 13.3763 12.2217 13.3763C12.2215 13.3761 12.2217 13.3763 12.2221 13.3768C12.2224 13.3772 12.2223 13.3773 12.2221 13.3767C12.2217 13.3756 12.2195 13.3698 12.2195 13.3569H11.8195ZM11.8195 13.2161V13.3569H12.2195V13.2161H11.8195ZM11.8313 13.0629C11.8263 13.1093 11.8195 13.1701 11.8195 13.2161H12.2195C12.2195 13.1968 12.223 13.1618 12.229 13.1056L11.8313 13.0629ZM11.8311 13.0653L11.8311 13.0653L12.2293 13.1032L12.2293 13.1032L11.8311 13.0653ZM11.8434 12.9108C11.8434 12.9481 11.8381 13.0001 11.8313 13.0628L12.229 13.1056C12.235 13.0498 12.2434 12.9741 12.2434 12.9108H11.8434ZM10.819 13.8622C11.1569 13.8622 11.4433 13.7839 11.6809 13.6306C11.9178 13.4777 12.0925 13.2592 12.2222 13.0004L11.8646 12.8211C11.759 13.0319 11.6275 13.189 11.464 13.2945C11.3013 13.3995 11.0932 13.4622 10.819 13.4622V13.8622ZM9.04199 11.7137C9.04199 12.3443 9.20305 12.8803 9.51322 13.2629C9.82705 13.6499 10.2798 13.8622 10.819 13.8622V13.4622C10.3931 13.4622 10.0573 13.2988 9.82393 13.0109C9.58687 12.7185 9.44199 12.2803 9.44199 11.7137H9.04199ZM10.8425 9.61241C10.2933 9.61241 9.83518 9.8232 9.51788 10.2036C9.2039 10.5801 9.04199 11.1049 9.04199 11.7137H9.44199C9.44199 11.1723 9.58597 10.7465 9.82506 10.4598C10.0608 10.1772 10.403 10.0124 10.8425 10.0124V9.61241ZM12.2457 10.4737C12.1159 10.215 11.9412 9.9965 11.7043 9.84376C11.4667 9.69054 11.1803 9.61241 10.8425 9.61241V10.0124C11.1167 10.0124 11.3248 10.075 11.4875 10.1799C11.651 10.2853 11.7824 10.4423 11.8881 10.653L12.2457 10.4737ZM11.8549 10.3121C11.8611 10.4017 11.8669 10.4862 11.8669 10.5634H12.2669C12.2669 10.4699 12.26 10.3712 12.254 10.2846L11.8549 10.3121ZM11.8555 10.3187L11.8555 10.3188L12.2534 10.278L12.2534 10.2779L11.8555 10.3187ZM11.8434 10.0705C11.8434 10.1465 11.8494 10.2325 11.8549 10.3121L12.254 10.2846C12.2482 10.201 12.2434 10.1299 12.2434 10.0705H11.8434ZM11.8434 8.61534V10.0705H12.2434V8.61534H11.8434ZM6.00738 10.6764C6.1138 10.4642 6.24606 10.301 6.41292 10.1901C6.57851 10.08 6.79168 10.0124 7.07597 10.0124V9.61241C6.72467 9.61241 6.43186 9.69722 6.1915 9.85697C5.95243 10.0159 5.77879 10.2399 5.64981 10.4971L6.00738 10.6764ZM5.65204 10.2124C5.65204 10.3122 5.65125 10.454 5.6325 10.5474L6.02469 10.6261C6.05284 10.4858 6.05204 10.3007 6.05204 10.2124L5.65204 10.2124ZM5.65204 10.2124V10.2124H6.05204V10.2124H5.65204ZM5.65204 10.2113V10.2124H6.05204V10.2113H5.65204ZM5.65204 10.0939V10.2113H6.05204V10.0939H5.65204ZM5.56974 10.0592C5.62797 10.0592 5.64917 10.0722 5.65134 10.0739C5.6516 10.0741 5.65112 10.0738 5.65039 10.0729C5.65006 10.0724 5.64977 10.072 5.64955 10.0717C5.64933 10.0713 5.64923 10.0711 5.64924 10.0711C5.64925 10.0711 5.6494 10.0715 5.64964 10.0722C5.64987 10.073 5.65022 10.0742 5.65057 10.0759C5.65127 10.0794 5.65204 10.0853 5.65204 10.0939H6.05204C6.05204 9.9587 6.00054 9.83723 5.89403 9.75594C5.79625 9.68131 5.6763 9.65918 5.56974 9.65918V10.0592ZM5.46353 10.1173C5.46353 10.1003 5.46652 10.0915 5.46804 10.088C5.46938 10.0849 5.47087 10.0829 5.47373 10.0805C5.48025 10.0751 5.50629 10.0592 5.56974 10.0592V9.65918C5.44486 9.65918 5.3178 9.69014 5.21829 9.77271C5.11383 9.85939 5.06353 9.9834 5.06353 10.1173H5.46353ZM5.46353 14.7419V10.1173H5.06353V14.7419H5.46353ZM5.56974 14.8C5.50629 14.8 5.48025 14.7841 5.47373 14.7787C5.47087 14.7763 5.46938 14.7743 5.46804 14.7712C5.46652 14.7678 5.46353 14.7589 5.46353 14.7419H5.06353C5.06353 14.8758 5.11383 14.9998 5.21829 15.0865C5.3178 15.1691 5.44486 15.2 5.56974 15.2V14.8ZM5.65204 14.7419C5.65204 14.7643 5.64881 14.7768 5.64675 14.7824C5.64576 14.7851 5.645 14.7863 5.64485 14.7866C5.64476 14.7867 5.64474 14.7867 5.64479 14.7866C5.64481 14.7866 5.64484 14.7866 5.64486 14.7866C5.64489 14.7865 5.6449 14.7865 5.6449 14.7865C5.6449 14.7865 5.64487 14.7866 5.64481 14.7866C5.64475 14.7867 5.64465 14.7867 5.6445 14.7869C5.6442 14.7871 5.64364 14.7875 5.64274 14.788C5.64097 14.789 5.6376 14.7906 5.63201 14.7924C5.62054 14.7961 5.6007 14.8 5.56974 14.8V15.2C5.69463 15.2 5.82164 15.1689 5.91813 15.0787C6.01679 14.9864 6.05204 14.862 6.05204 14.7419H5.65204ZM5.65204 13.2863V14.7419H6.05204V13.2863H5.65204ZM5.65204 13.2849V13.2863H6.05204V13.2849H5.65204ZM5.6325 12.9501C5.6513 13.0438 5.65204 13.1629 5.65204 13.2849L6.05204 13.2849C6.05204 13.1728 6.05279 13.0116 6.02469 12.8714L5.6325 12.9501ZM7.05253 13.4856C6.78155 13.4856 6.57442 13.4186 6.4112 13.3085C6.24646 13.1973 6.11387 13.0335 6.00738 12.8211L5.64981 13.0004C5.77873 13.2575 5.95207 13.4812 6.18743 13.64C6.42431 13.7999 6.71144 13.8856 7.05253 13.8856V13.4856ZM8.45347 11.7137C8.45347 12.2803 8.30847 12.7247 8.06803 13.0231C7.83137 13.3168 7.48967 13.4856 7.05253 13.4856V13.8856C7.60409 13.8856 8.06286 13.667 8.3795 13.2741C8.69235 12.8858 8.85347 12.3442 8.85347 11.7137H8.45347ZM7.07597 10.0124C7.51917 10.0124 7.85391 10.168 8.0817 10.442C8.31357 10.7209 8.45347 11.1454 8.45347 11.7137H8.85347C8.85347 11.0849 8.69898 10.5587 8.38928 10.1863C8.0755 9.80887 7.62149 9.61241 7.07597 9.61241V10.0124ZM10.9133 10.5053C11.2182 10.5053 11.4412 10.6248 11.5933 10.8231C11.7502 11.0277 11.8434 11.3325 11.8434 11.7137H12.2434C12.2434 11.2733 12.1364 10.8739 11.9107 10.5797C11.6802 10.2792 11.3381 10.1053 10.9133 10.1053V10.5053ZM10.054 11.7137C10.054 11.3174 10.1427 11.0116 10.2893 10.8103C10.4303 10.6167 10.6344 10.5053 10.9133 10.5053V10.1053C10.5094 10.1053 10.1839 10.2755 9.96594 10.5749C9.7535 10.8666 9.65395 11.2649 9.65395 11.7137H10.054ZM10.9133 12.9455C10.6346 12.9455 10.4309 12.8343 10.2899 12.6385C10.1432 12.4345 10.054 12.1227 10.054 11.7137H9.65395C9.65395 12.1732 9.75307 12.5773 9.96529 12.8721C10.1833 13.1751 10.5092 13.3455 10.9133 13.3455V12.9455ZM11.8434 11.7137C11.8434 12.1052 11.745 12.4163 11.5847 12.6245C11.4285 12.8273 11.2047 12.9455 10.9133 12.9455V13.3455C11.3281 13.3455 11.6693 13.1703 11.9017 12.8685C12.1299 12.5721 12.2434 12.1672 12.2434 11.7137H11.8434ZM8.2415 11.7371C8.2415 11.28 8.14924 10.8812 7.94241 10.5911C7.72877 10.2914 7.40724 10.1286 7.00561 10.1286V10.5286C7.28667 10.5286 7.48307 10.6358 7.61671 10.8233C7.75715 11.0203 7.8415 11.3256 7.8415 11.7371H8.2415ZM6.98217 13.3455C7.37697 13.3455 7.69548 13.173 7.91185 12.8759C8.12283 12.5862 8.22895 12.1902 8.24142 11.7426L7.84157 11.7315C7.8305 12.129 7.73653 12.4372 7.58851 12.6405C7.44589 12.8363 7.2465 12.9455 6.98217 12.9455V13.3455ZM5.65203 11.7371C5.65203 12.18 5.76611 12.5791 5.99448 12.8723C6.22673 13.1705 6.56755 13.3455 6.98217 13.3455V12.9455C6.69056 12.9455 6.46631 12.8271 6.31005 12.6265C6.14991 12.4209 6.05203 12.1158 6.05203 11.7371H5.65203ZM7.00561 10.1286C6.5814 10.1286 6.23449 10.3019 5.99827 10.6007C5.76609 10.8944 5.65203 11.2942 5.65203 11.7371H6.05203C6.05203 11.3584 6.14989 11.0539 6.31206 10.8488C6.47018 10.6488 6.70007 10.5286 7.00561 10.5286V10.1286ZM3.78028 12.4994C3.41114 12.4994 3.13337 12.7766 3.13337 13.1455H3.53337C3.53337 12.998 3.63153 12.8994 3.78028 12.8994V12.4994ZM4.45109 13.1455C4.45109 12.7632 4.13549 12.4994 3.78028 12.4994V12.8994C3.94297 12.8994 4.05109 13.0114 4.05109 13.1455H4.45109ZM3.78028 13.815C4.14246 13.815 4.45109 13.5447 4.45109 13.1455H4.05109C4.05109 13.3097 3.93599 13.415 3.78028 13.415V13.815ZM3.13337 13.1455C3.13337 13.3317 3.19621 13.501 3.31587 13.6248C3.4358 13.749 3.60087 13.815 3.78028 13.815V13.415C3.70074 13.415 3.64235 13.3871 3.60357 13.3469C3.56452 13.3065 3.53337 13.241 3.53337 13.1455H3.13337Z" fill="white"/>
</svg>
